car_eda
…
#Maybe Important, but probably not
#The makes that seem to have a higher probability do not occur often

Model

length(unique(to.clean$Model)) #1130 distinct values

## [1] 1130

to.clean %>% filter(!is.na(IsBadBuy)) %>% dplyr::select(IsBadBuy, Model) %>% group_by(IsBadBuy, Model) %>% tally %>% ungroup %>% group_by(Model) %>% mutate(total = sum(n)) %>% mutate(prop = n/total) %>% filter(IsBadBuy == 0, prop > .12) %>% arrange(desc(prop), n) %>% filter(total <= 1)

## # A tibble: 113 x 5
## # Groups:   Model [113]
##    IsBadBuy Model                    n total  prop
##       <int> <fct>                <int> <int> <dbl>
##  1        0 2500HD SIERRA PICKUP     1     1     1
##  2        0 3.2 CL                   1     1     1
##  3        0 350Z 3.5L V6 MPI         1     1     1
##  4        0 350Z MFI V6 3.5L DOH     1     1     1
##  5        0 4 RUNNER 2WD V8 4.7L     1     1     1
##  6        0 ALERO 4C 2.4L I-4 SF     1     1     1
##  7        0 ALTIMA 3.5L V6 MPI /     1     1     1
##  8        0 ASCENDER 2WD V8 5.3L     1     1     1
##  9        0 AVALANCHE 2500 2WD V     1     1     1
## 10        0 AVALON 3.0L V6 EFI       1     1     1
## # ... with 103 more rows
…
